{"current_page":1,"data":[{"id":1,"user_name":"aleiturres","email":"aleiturres@hotmail.com","tenant_id":null,"user_type":"admin","status":1,"created_at":"2022-01-08T22:58:05.000000Z","updated_at":"2022-01-08T22:58:05.000000Z","name":"Alexandre","surname":"Iturres","birth_date":"1976-03-22","gender":"m","another_gender":null,"rg":null,"cpf":null,"cnpj":null,"insc_est":null,"user_id":1},{"id":2,"user_name":"beer.berenice","email":"alexandre.reilly@example.org","tenant_id":"45","user_type":"employee","status":1,"created_at":"2022-01-08T22:58:08.000000Z","updated_at":"2022-01-08T22:58:08.000000Z","name":"Avis","surname":"Batz","birth_date":"2003-06-29","gender":"f","another_gender":null,"rg":"78650","cpf":"54538","cnpj":"1115","insc_est":"874","user_id":2},{"id":3,"user_name":"kaci10","email":"chesley35@example.com","tenant_id":"48","user_type":"employee","status":1,"created_at":"2022-01-08T22:58:08.000000Z","updated_at":"2022-01-08T22:58:08.000000Z","name":"Scotty","surname":"Wilkinson","birth_date":"2014-03-15","gender":"m","another_gender":null,"rg":"705902","cpf":"10198","cnpj":"418476212","insc_est":"53","user_id":3},{"id":4,"user_name":"leora04","email":"renner.dax@example.com","tenant_id":"48","user_type":"admin","status":1,"created_at":"2022-01-08T22:58:08.000000Z","updated_at":"2022-01-08T22:58:08.000000Z","name":"Jammie","surname":"Grant","birth_date":"2018-04-25","gender":"o","another_gender":"homo","rg":"9713203","cpf":"5832889","cnpj":"24","insc_est":"58133","user_id":4},{"id":5,"user_name":"katlynn47","email":"mclaughlin.micah@example.org","tenant_id":"48","user_type":"admin","status":1,"created_at":"2022-01-08T22:58:08.000000Z","updated_at":"2022-01-08T22:58:08.000000Z","name":"Nestor","surname":"Kuphal","birth_date":"2002-07-05","gender":"f","another_gender":null,"rg":"5","cpf":"650","cnpj":"33477356","insc_est":"661","user_id":5},{"id":6,"user_name":"joanie55","email":"nat96@example.org","tenant_id":"2","user_type":"employee","status":1,"created_at":"2022-01-08T22:58:08.000000Z","updated_at":"2022-01-08T22:58:08.000000Z","name":"Cristian","surname":"Gaylord","birth_date":"2007-11-21","gender":"m","another_gender":null,"rg":"292","cpf":"18051396","cnpj":"2682097","insc_est":"40290","user_id":6},{"id":7,"user_name":"ngoodwin","email":"benny.mohr@example.net","tenant_id":"44","user_type":"buyer","status":1,"created_at":"2022-01-08T22:58:08.000000Z","updated_at":"2022-01-08T22:58:08.000000Z","name":"Itzel","surname":"Durgan","birth_date":"1971-03-26","gender":"f","another_gender":null,"rg":"204","cpf":"662","cnpj":"8277","insc_est":"7706","user_id":7},{"id":8,"user_name":"vgerlach","email":"nstrosin@example.com","tenant_id":"22","user_type":"buyer","status":1,"created_at":"2022-01-08T22:58:08.000000Z","updated_at":"2022-01-08T22:58:08.000000Z","name":"Verlie","surname":"Yost","birth_date":"1993-07-04","gender":"f","another_gender":null,"rg":"89","cpf":"65","cnpj":"9851515","insc_est":"985046898","user_id":8},{"id":9,"user_name":"freeda.lueilwitz","email":"friesen.katarina@example.net","tenant_id":"41","user_type":"employee","status":1,"created_at":"2022-01-08T22:58:08.000000Z","updated_at":"2022-01-08T22:58:08.000000Z","name":"Yazmin","surname":"Carroll","birth_date":"1979-09-15","gender":"o","another_gender":"trans","rg":"196432946","cpf":"98613786","cnpj":"7531170","insc_est":"89470","user_id":9},{"id":10,"user_name":"schultz.isaiah","email":"linnie.emard@example.net","tenant_id":"3","user_type":"employee","status":1,"created_at":"2022-01-08T22:58:09.000000Z","updated_at":"2022-01-08T22:58:09.000000Z","name":"Isabel","surname":"Bahringer","birth_date":"1976-12-27","gender":"f","another_gender":null,"rg":"9386","cpf":"3130871","cnpj":"4","insc_est":"364359","user_id":10}],"first_page_url":"http:\/\/localhost:8000\/api\/v1\/users?page=1","from":1,"last_page":6,"last_page_url":"http:\/\/localhost:8000\/api\/v1\/users?page=6","links":[{"url":null,"label":"&laquo; Previous","active":false},{"url":"http:\/\/localhost:8000\/api\/v1\/users?page=1","label":"1","active":true},{"url":"http:\/\/localhost:8000\/api\/v1\/users?page=2","label":"2","active":false},{"url":"http:\/\/localhost:8000\/api\/v1\/users?page=3","label":"3","active":false},{"url":"http:\/\/localhost:8000\/api\/v1\/users?page=4","label":"4","active":false},{"url":"http:\/\/localhost:8000\/api\/v1\/users?page=5","label":"5","active":false},{"url":"http:\/\/localhost:8000\/api\/v1\/users?page=6","label":"6","active":false},{"url":"http:\/\/localhost:8000\/api\/v1\/users?page=2","label":"Next &raquo;","active":false}],"next_page_url":"http:\/\/localhost:8000\/api\/v1\/users?page=2","path":"http:\/\/localhost:8000\/api\/v1\/users","per_page":10,"prev_page_url":null,"to":10,"total":51}